%!PS-Adobe-3.0 EPSF-3.0
%%Creator: cairo 1.14.6 (http://cairographics.org)
%%CreationDate: Wed Aug  1 23:19:46 2018
%%Pages: 1
%%DocumentData: Clean7Bit
%%LanguageLevel: 2
%%BoundingBox: 0 0 801 801
%%EndComments
%%BeginProlog
save
50 dict begin
/q { gsave } bind def
/Q { grestore } bind def
/cm { 6 array astore concat } bind def
/w { setlinewidth } bind def
/J { setlinecap } bind def
/j { setlinejoin } bind def
/M { setmiterlimit } bind def
/d { setdash } bind def
/m { moveto } bind def
/l { lineto } bind def
/c { curveto } bind def
/h { closepath } bind def
/re { exch dup neg 3 1 roll 5 3 roll moveto 0 rlineto
      0 exch rlineto 0 rlineto closepath } bind def
/S { stroke } bind def
/f { fill } bind def
/f* { eofill } bind def
/n { newpath } bind def
/W { clip } bind def
/W* { eoclip } bind def
/BT { } bind def
/ET { } bind def
/pdfmark where { pop globaldict /?pdfmark /exec load put }
    { globaldict begin /?pdfmark /pop load def /pdfmark
    /cleartomark load def end } ifelse
/BDC { mark 3 1 roll /BDC pdfmark } bind def
/EMC { mark /EMC pdfmark } bind def
/cairo_store_point { /cairo_point_y exch def /cairo_point_x exch def } def
/Tj { show currentpoint cairo_store_point } bind def
/TJ {
  {
    dup
    type /stringtype eq
    { show } { -0.001 mul 0 cairo_font_matrix dtransform rmoveto } ifelse
  } forall
  currentpoint cairo_store_point
} bind def
/cairo_selectfont { cairo_font_matrix aload pop pop pop 0 0 6 array astore
    cairo_font exch selectfont cairo_point_x cairo_point_y moveto } bind def
/Tf { pop /cairo_font exch def /cairo_font_matrix where
      { pop cairo_selectfont } if } bind def
/Td { matrix translate cairo_font_matrix matrix concatmatrix dup
      /cairo_font_matrix exch def dup 4 get exch 5 get cairo_store_point
      /cairo_font where { pop cairo_selectfont } if } bind def
/Tm { 2 copy 8 2 roll 6 array astore /cairo_font_matrix exch def
      cairo_store_point /cairo_font where { pop cairo_selectfont } if } bind def
/g { setgray } bind def
/rg { setrgbcolor } bind def
/d1 { setcachedevice } bind def
%%EndProlog
%%BeginSetup
%%EndSetup
%%Page: 1 1
%%BeginPageSetup
%%PageBoundingBox: 0 0 801 801
%%EndPageSetup
q 0 0 801 801 rectclip q
0.764706 0.921569 0.956863 rg
0.137 800 800 -800 re f
Q q
0 800 800 -800 re W n
q
0 800 800 -800 re W n
[ 1 0 0 1 0 -0.999939 ] concat
  q
0.184314 0.188235 0.192157 rg
629.145 501.043 m 627.984 504.23 624.758 505.762 621.664 506.5 c 621.773
 506.801 621.75 507.156 621.508 507.426 c 613.641 516.195 605.371 524.383
 598.562 534.059 c 591.816 543.645 586.117 553.992 581.645 564.828 c 572.828
 586.207 568.887 609.324 569.789 632.414 c 569.812 633.066 569.516 633.512
 569.094 633.754 c 564.945 659.609 543.711 678.133 523.238 692.285 c 502.848
 706.379 479.309 717.578 454.402 718.816 c 458.852 722.082 463.711 724.672
 469.27 726.543 c 478.922 729.789 489.152 731.281 499.238 732.418 c 521.797
 734.957 544.812 734.207 566.285 726.273 c 565.109 723.684 567.207 719.746
 569.328 717.453 c 567.465 715.23 566.578 712.207 569.469 710.191 c 572.719
 707.922 576.191 710.074 578.473 712.613 c 579.52 711.867 580.805 711.312
 581.43 711.152 c 583.793 710.555 586.32 711.379 587.348 713.688 c 587.578
 714.215 587.703 714.801 587.73 715.383 c 589.371 715.027 591.652 715.57
 592.742 716.488 c 594.223 717.734 594.863 720.184 594.395 722.203 c 595.523
 722.312 596.602 722.867 597.227 723.887 c 598.012 725.168 597.887 726.867
 597.062 728.098 c 597.043 728.121 597.023 728.148 597.004 728.176 c 597.816
 728.406 598.566 728.918 599.133 729.746 c 601.055 732.555 598.973 735.961
 596.562 737.57 c 592.383 740.359 585.539 740.707 580.688 740.742 c 578.059
 740.766 573.812 741.164 572.004 739.117 c 542.25 748.484 509.883 753.637
 478.949 747.66 c 465.148 744.996 451.641 740.129 439.633 732.762 c 430.188
 726.969 422.023 719.328 414.246 711.402 c 408.68 709.352 403.105 707.633
 397.32 707.812 c 401.469 711.391 404.426 718.691 401.605 722.953 c 399.688
 725.848 396.461 727.27 393.508 728.855 c 388.418 731.582 386.742 735.312
 384.516 740.293 c 381.574 746.879 376.352 751.773 369.332 753.758 c 365.789
 754.754 359.102 755.578 356.215 752.613 c 352.73 759.922 340.172 758.641
 334.102 755.035 c 323.703 748.863 322.203 733.859 309.734 730.602 c 304.879
 729.332 299.867 728.395 297.227 723.633 c 295.156 719.902 295.293 715.078
 297.387 711.41 c 302.168 703.023 313.84 701.898 321.098 707.359 c 324.02
 697.324 331.82 688.586 341.023 682.766 c 339.875 682.23 339.066 681.125
 338.898 679.762 c 338.656 677.766 339.906 676.031 341.777 675.391 c 343.609
 674.766 345.59 675.32 346.789 676.848 c 347.234 677.414 347.648 678.246
 347.844 679.102 c 350.035 678.121 352.254 677.309 354.461 676.688 c 361.742
 674.641 370.02 674.441 377.078 677.453 c 380.445 678.895 383.902 681.547
 385.484 684.914 c 387.973 683.684 390.453 682.461 392.941 681.234 c 393.629
 677.004 393.184 672.367 393.129 668.32 c 393.047 662.363 392.848 656.406
 392.516 650.457 c 391.805 637.777 390.473 625.133 388.508 612.582 c 385.207
 591.496 380.113 570.738 373.43 550.477 c 373.141 550.488 372.84 550.383
 372.648 550.125 c 368.48 544.453 358.77 548.656 355.074 542.758 c 353.91
 540.902 353.961 538.43 355.781 537.016 c 355.824 536.98 355.879 536.957
 355.926 536.926 c 352.59 534.188 350 529.508 352.617 525.57 c 353.492 524.258
 355.191 523.504 356.816 523.441 c 356.516 521.832 357.016 520.051 358.43
 519.078 c 359.773 518.156 361.574 518.242 363.004 518.941 c 363.281 517.613
 364.141 516.422 365.559 515.867 c 366.875 515.355 368.465 515.617 369.742
 516.363 c 370.988 513.641 376.023 512.508 379.125 515.02 c 383.137 518.273
 384.332 524.852 385.18 529.605 c 385.867 533.441 386.215 537.371 386.09
 541.281 c 402.234 582.27 412.805 625.723 416.074 669.668 c 429.848 662.609
 443.426 655.203 456.574 646.785 c 468.258 639.305 479.617 631.137 492.387
 625.547 c 493.051 625.258 493.727 624.969 494.41 624.688 c 480.59 603.297
 471.555 578.336 466.254 553.637 c 460.402 526.406 459.086 498.043 463.508
 470.516 c 455.191 469.711 447.254 466.613 439.766 463.008 c 438.984 462.629
 438.855 461.582 439.211 460.887 c 440.676 458.039 438.805 455.133 443.137
 454.711 c 449.316 454.109 456.637 455.871 462.758 456.844 c 466.172 457.387
 469.57 458.027 472.949 458.75 c 474.715 459.125 477.617 459.266 479.102
 460.457 c 482.199 462.961 479.484 469.594 478.992 472.777 c 478.984 472.824
 478.969 472.863 478.957 472.906 c 479.484 486.168 479.668 499.199 482.09
 512.332 c 484.469 525.242 488.211 537.879 492.887 550.137 c 497.781 562.961
 503.746 575.352 510.383 587.359 c 513.523 593.039 516.812 598.641 520.223
 604.164 c 523.129 608.871 526.266 615.703 531.402 618.574 c 530.02 607.07
 531.691 594.312 534.648 583.691 c 538.012 571.625 544.211 560.562 551.809
 550.668 c 559.984 540.023 569.637 530.656 579.629 521.734 c 588.652 513.672
 598.473 503.035 609.977 498.477 c 609.641 498.312 609.305 498.105 608.973
 497.844 c 604.824 494.617 601.453 488.887 598.141 484.805 c 596.008 482.18
 594.156 480.699 596.551 477.582 c 598.328 475.27 601.551 474.391 604.336
 474.844 c 607.965 475.434 610.762 478.074 613.32 480.512 c 617.605 484.59
 621.844 488.727 626.043 492.895 c 628.367 495.199 630.395 497.598 629.145
 501.043 c f
383.352 531.949 m 382.164 532.59 380.84 532.645 379.754 532.199 c 379.543
 533.113 379.035 533.965 378.199 534.523 c 377.234 535.172 375.988 535.262
 374.891 534.938 c 374.543 534.836 374.18 534.668 373.836 534.457 c 373.57
 535.258 373.262 536.055 372.684 536.602 c 371.953 537.293 370.949 537.609
 369.953 537.59 c 368.969 537.57 367.578 537.09 366.738 536.273 c 366.156
 537.707 364.938 538.863 363.355 539.398 c 360.297 540.43 358.289 538.695
 356.48 536.406 c 355.5 535.164 354.578 533.793 353.77 532.352 c 351.785
 533.617 348.137 532.41 347.113 530.18 c 346.152 528.09 346.902 525.613 
348.324 523.938 c 348.523 523.703 349.734 522.625 350.805 522.051 c 350.879
 517.441 352.848 513.031 352.754 508.391 c 352.742 507.977 352.996 507.707
 353.309 507.59 c 343.609 483.547 333.973 459.508 323.586 435.742 c 318.547
 424.219 313.738 412.52 308.07 401.281 c 304.262 393.73 299.742 387.531 
294.188 381.82 c 293.168 383.195 292.129 384.547 291.035 385.844 c 290.898
 386.148 290.762 386.453 290.629 386.746 c 289.164 389.984 287.426 392.988
 285.391 395.801 c 286.203 396.395 286.93 397.262 287.555 397.895 c 287.578
 397.918 287.602 397.945 287.625 397.973 c 287.664 397.996 287.703 398.016
 287.738 398.039 c 288.062 397.871 288.441 397.832 288.855 398.004 c 300.531
 402.934 298.59 420.719 294.664 430.152 c 293.18 433.73 291.176 437.012 
288.793 439.988 c 291.613 441.305 292.32 445.777 289.871 447.832 c 287.703
 449.652 283.859 448.582 282.852 446.113 c 278.629 449.723 273.758 452.605
 268.59 454.656 c 266.039 457.02 263.184 458.195 259.73 458.406 c 259.758
 458.527 259.793 458.641 259.816 458.762 c 260 459.633 259.867 460.395 259.551
 461.035 c 264.316 468.879 258.527 479.602 249.523 481.809 c 238.23 484.582
 230.449 474.141 226.594 465.059 c 223.887 458.688 222.137 451.605 217.609
 446.188 c 213.016 440.695 205.926 439.34 200.434 435.117 c 192.883 429.312
 192.535 416.984 201.742 412.508 c 201.883 412.441 202.02 412.402 202.148
 412.387 c 198.617 408.027 200.105 401.078 203.496 396.977 c 208.535 390.871
 216.707 389.699 223.684 387.027 c 229.023 384.98 232.266 382.078 235.426
 377.348 c 237.531 374.195 239.891 371.32 243.434 369.734 c 249.027 367.234
 256.098 368.938 258.727 374.758 c 258.746 374.809 258.762 374.855 258.773
 374.902 c 258.785 374.855 258.797 374.812 258.805 374.766 c 258.941 373.938
 259.051 373.102 259.195 372.281 c 259.711 367.547 259.09 362.473 258.23
 357.559 c 255.348 353.98 252.996 349.859 250.691 346.016 c 247.18 340.16
 243.918 334.164 240.93 328.027 c 235.152 316.16 230.32 303.828 226.492 
291.195 c 218.824 265.895 214.91 239.008 215.984 212.543 c 215.469 210.512
 215 208.438 215.16 206.473 c 209.008 201.973 206.402 190.203 206.816 183.102
 c 206.957 180.758 208.422 177.594 211.246 177.617 c 212.012 177.625 212.641
 177.875 213.141 178.262 c 213.531 177.398 214.16 176.637 214.938 176.137
 c 217.023 174.789 219.387 175.633 220.871 177.309 c 221.844 176.062 223.637
 175.203 224.957 175.277 c 226.934 175.387 228.531 177.098 228.938 178.996
 c 230.441 177.02 234.203 177.129 236.051 178.906 c 239.91 182.621 237.523
 188.242 235.785 192.629 c 238.266 193.547 239.938 196.375 238.906 199.078
 c 238.188 200.969 236.484 201.715 235.047 202.93 c 233.262 204.434 232.094
 206.723 231.934 209.059 c 232.051 209.148 232.148 209.273 232.184 209.449
 c 236.086 228.117 237.988 247.07 242.766 265.582 c 245.059 274.457 247.797
 283.23 251.176 291.754 c 252.176 294.277 253.281 296.73 254.445 299.145
 c 255.707 277.281 259.148 255.344 263.66 233.852 c 263.328 228.422 263.422
 222.93 263.328 217.531 c 263.203 210.086 263.176 202.555 264.574 195.211
 c 265.965 187.922 268.859 181.035 270.637 173.848 c 272.617 165.82 273.043
 157.535 272.969 149.301 c 272.699 119.223 265.621 88.762 248.109 63.914
 c 238.977 50.957 227.184 39.973 213.312 32.266 c 212.57 31.852 212.422 
31.141 212.625 30.52 c 212.555 30.293 212.555 30.035 212.684 29.77 c 216.062
 22.773 219.707 15.879 223.664 9.195 c 225.668 5.812 228.82 -1.848 233.586
 -1.879 c 237.895 -1.91 239.445 2.598 238.961 6.188 c 238.215 11.684 235.664
 17.543 233.492 22.992 c 252.91 36.109 268.344 55.352 279.582 75.621 c 294.211
 101.992 302.023 131.469 305.938 161.223 c 306.875 168.332 307.641 175.496
 308.223 182.68 c 317.234 158.035 323.094 132.902 324.203 106.434 c 324.805
 92.168 324.164 77.844 322.254 63.691 c 321.281 56.508 319.984 49.363 318.367
 42.297 c 316.809 35.5 314.574 28.816 313.289 21.961 c 312.906 21.508 312.48
 21.074 312.25 20.738 c 310.809 18.641 309.527 16.406 308.176 14.25 c 307.734
 13.551 308.02 12.543 308.727 12.141 c 315.055 8.531 321.559 5.254 328.246
 2.363 c 331.152 1.105 334.09 -0.082 337.055 -1.191 c 338.887 -1.875 341.656
 -3.445 343.723 -2.535 c 346.859 -1.148 346.281 3.375 345.055 5.812 c 342.188
 11.504 335.289 15.766 330.297 19.703 c 336.727 34.305 339.871 49.902 341.926
 65.691 c 344.238 83.488 345.309 101.445 345.145 119.391 c 344.984 136.855
 343.645 154.301 341.18 171.59 c 339.934 180.316 338.398 189 336.535 197.617
 c 334.66 206.301 332.152 214.348 329.223 222.633 c 329.242 222.727 329.262
 222.82 329.266 222.922 c 330.984 255.594 329.316 289.582 321.281 321.387
 c 318.285 333.242 314.289 344.848 309.125 355.938 c 315.621 363.215 319.953
 372.656 323.672 381.426 c 328.867 393.691 333.234 406.34 337.656 418.898
 c 339.945 425.41 342.16 431.945 344.34 438.492 c 347.242 445.438 349.906
 452.535 352.203 459.652 c 357.734 473.145 362.551 487.023 366.176 501.059
 c 369.41 504.797 374.043 506.934 377.625 510.328 c 381.301 513.805 384.047
 518.352 385.316 523.254 c 386.07 526.16 386.5 530.25 383.352 531.949 c f
0.223529 0.447059 0.756863 rg
444.434 641.336 m 444.355 641.395 444.273 641.445 444.191 641.484 c 444.129
 641.641 444.07 641.797 444.008 641.953 c 443.781 642.562 443.559 643.176
 443.336 643.785 c 443.238 644.141 443.145 644.5 443.043 644.855 c 443.527
 643.691 443.984 642.516 444.434 641.336 c h
415.922 683.004 m 415.414 683.43 414.875 683.828 414.348 684.234 c 415.191
 683.938 416.023 683.484 416.832 682.922 c 416.508 683.066 416.199 683.082
 415.922 683.004 c h
453.633 623.422 m 452.488 626.707 451.32 630.102 449.898 633.344 c 449.898
 633.473 449.883 633.609 449.84 633.754 c 446.27 645.613 440.941 656.84 
433.953 667.078 c 430.746 671.77 427.238 676.254 423.355 680.406 c 420.68
 683.266 418.441 685.277 415.031 685.453 c 415.391 686.242 414.926 686.93
 414.539 687.652 c 414.137 688.418 413.664 689.133 413.184 689.852 c 413.016
 690.102 412.758 690.215 412.496 690.234 c 412.445 690.645 412.211 691.027
 411.762 691.102 c 410.73 691.266 409.684 691.242 408.645 691.309 c 407.543
 691.379 406.727 691.371 405.68 691.012 c 405.543 690.965 405.453 690.879
 405.391 690.777 c 404.871 690.754 404.379 690.406 404.414 689.766 c 404.438
 689.309 404.48 688.93 404.27 688.508 c 404.055 688.082 403.777 687.777 
403.355 687.559 c 402.668 687.203 402.879 686.266 403.449 685.984 c 403.473
 685.855 403.527 685.723 403.652 685.605 c 404.91 684.418 406.02 683.047
 406.922 681.57 c 407.18 681.145 407.695 680.93 408.18 681.059 c 409.316
 681.355 410.449 681.656 411.586 681.957 c 411.793 681.738 412.004 681.523
 412.211 681.309 c 415.602 673.238 419.906 665.629 422.828 657.305 c 425.984
 648.316 428.16 639.109 429.762 629.73 c 429.77 629.672 429.789 629.621 
429.805 629.57 c 429.766 629.211 429.68 628.863 429.688 628.496 c 429.699
 628.031 429.742 627.531 429.855 627.082 c 429.883 626.973 429.922 626.875
 429.973 626.789 c 429.984 626.398 429.988 626.012 430 625.621 c 430.059
 623.605 429.805 621.484 430.332 619.535 c 430.414 619.219 430.648 619.023
 430.914 618.949 c 431.227 616.5 433.801 614.477 435.371 612.719 c 437.633
 610.184 439.953 607.707 442.301 605.254 c 442.836 604.695 443.5 604.773
 443.965 605.137 c 446.371 605.973 447.621 608.969 448.777 611.023 c 450.578
 614.223 452.172 617.617 453.34 621.105 c 453.473 621.5 453.371 621.859 
453.152 622.141 c 453.578 622.359 453.848 622.809 453.633 623.422 c f
307.414 350.453 m 307.324 350.395 307.242 350.328 307.168 350.254 c 306.555
 350.82 305.941 351.383 305.316 351.934 c 306.023 351.445 306.715 350.945
 307.414 350.453 c h
338.902 332.84 m 338.82 332.828 338.738 332.809 338.66 332.785 c 337.785
 333.867 336.902 334.945 336.004 336.012 c 336.988 334.973 337.953 333.914
 338.902 332.84 c h
341.656 314.371 m 341.746 314.273 341.836 314.172 341.926 314.074 c 342.059
 313.926 342.203 313.816 342.348 313.723 c 341.887 313.863 341.43 314.016
 340.98 314.184 c 341.215 314.199 341.441 314.266 341.656 314.371 c h
290.246 367.152 m 290.254 367.477 290.16 367.805 289.988 368.094 c 290.234
 367.98 290.48 367.867 290.73 367.766 c 290.91 367.312 291.086 366.859 291.266
 366.402 c 290.961 366.699 290.621 366.949 290.246 367.152 c h
352.648 313.609 m 352.711 316.836 351.449 320.52 349.992 323.223 c 350.027
 323.512 349.957 323.832 349.738 324.164 c 343.43 333.781 335.062 342.152
 325.898 349.051 c 317.055 355.711 305.902 362.918 294.773 364.93 c 294.527
 365.516 294.262 366.094 293.996 366.676 c 293.609 367.516 293.316 368.574
 292.781 369.328 c 292.305 369.996 291.363 370.133 290.621 370.352 c 289.672
 370.633 288.73 370.895 287.762 371.102 c 287.676 371.121 287.59 371.113
 287.508 371.109 c 287.395 371.152 287.273 371.191 287.141 371.207 c 286.406
 371.305 285.785 370.691 285.238 370.281 c 284.688 369.867 284.18 369.402
 283.66 368.949 c 283.203 368.551 283.262 368.004 283.555 367.621 c 283.539
 367.566 283.516 367.516 283.512 367.457 c 283.371 366.109 283.352 364.844
 283.527 363.504 c 283.602 362.941 283.871 362.418 284.469 362.266 c 285.57
 361.98 286.656 361.637 287.699 361.172 c 288.625 360.754 289.316 360.156
 290.363 360.434 c 290.387 360.438 290.402 360.457 290.426 360.465 c 290.535
 360.391 290.664 360.34 290.82 360.344 c 290.949 360.348 291.078 360.367
 291.207 360.379 c 291.234 360.344 291.25 360.305 291.285 360.273 c 298.449
 353.77 305.809 347.527 312.273 340.297 c 319.062 332.703 324.699 324.426
 330.031 315.781 c 330.129 315.621 330.242 315.5 330.363 315.398 c 330.617
 314.75 331.004 314.188 331.527 313.699 c 331.762 313.102 332.031 312.527
 332.434 312.074 c 332.477 312.023 332.523 312 332.57 311.965 c 332.625 
311.891 332.688 311.82 332.777 311.77 c 334.172 310.957 335.594 310.477 
337.137 310.027 c 337.391 309.953 337.641 309.871 337.895 309.785 c 342.344
 307.75 347.012 306.082 351.492 304.199 c 352.027 303.977 352.512 304.176
 352.836 304.551 c 353.254 304.625 353.621 304.934 353.609 305.457 c 353.539
 308.027 353.227 310.836 352.648 313.609 c f
0.184314 0.188235 0.192157 rg
822.648 518.441 m 821.301 544.91 819.711 571.367 817.883 597.805 c 817.195
 607.77 819.191 623.453 808.047 628.203 c 803.113 630.301 797.398 630.195
 792.137 630.531 c 771.883 631.828 l 770.156 631.941 769.043 630.797 768.664
 629.414 c 768.371 629.23 768.086 629.012 767.812 628.734 c 726.777 587.484
 684.477 547.492 640.934 508.898 c 630.152 499.34 619.629 488.773 607.801
 480.508 c 596.344 472.5 583.426 470.02 569.664 469.562 c 555.43 469.086
 541.203 469.691 526.965 468.945 c 512.566 468.191 498.215 466.672 483.973
 464.449 c 468.109 461.977 452.391 458.633 436.633 455.582 c 428.27 453.965
 419.914 452.324 411.559 450.672 c 403.254 449.031 394.648 447.93 386.668
 445.094 c 384.77 444.418 384.234 442.109 385.082 440.676 c 384.602 438.52
 384.957 436.324 385.332 433.883 c 386.023 429.387 386.879 424.906 387.699
 420.434 c 389.289 411.797 391.082 403.219 393.055 394.664 c 395.027 386.117
 397.148 377.613 399.484 369.156 c 400.402 365.84 401.359 362.531 402.316
 359.223 c 399.988 353.875 398.41 348.137 395.789 342.883 c 392.664 336.629
 390.035 330.617 391.414 323.488 c 392.902 315.781 396.293 308.137 398.785
 300.703 c 401.082 293.855 402.789 286.062 405.984 279.438 c 405.414 276.242
 405.02 273.043 404.457 270.266 c 402.75 261.844 401.312 253.371 399.805
 244.91 c 396.766 227.883 393.336 210.828 390.934 193.695 c 388.715 177.863
 398.242 163.312 403.672 148.973 c 409.648 133.176 414.012 117.051 418.859
 100.91 c 418.91 100.75 418.965 100.598 419.023 100.453 c 417.32 91.312 
414.879 82.277 413.531 73.09 c 411.699 60.633 411.621 48.145 412.461 35.598
 c 414.156 10.23 419.129 -15.375 415.555 -40.809 c 415.035 -44.504 416.938
 -47.219 420.734 -47.605 c 445.645 -50.145 470.504 -48.02 495.426 -46.867
 c 520.543 -45.703 545.426 -47.348 570.484 -48.938 c 620.113 -52.086 669.879
 -51.727 719.555 -50.086 c 747.727 -49.152 775.887 -47.812 804.039 -46.465
 c 806.188 -51.102 814.957 -50.152 815.449 -43.66 c 822.566 50.152 826.68
 144.195 827.918 238.27 c 829.145 331.684 827.402 425.137 822.648 518.441
 c f
  Q
Q
1 g
380.477 31.039 m 380.473 31.043 380.473 31.051 380.473 31.059 c 380.473
 31.051 380.473 31.043 380.477 31.039 c f
380.605 30.211 m 380.609 30.211 380.609 30.211 380.609 30.211 c 380.559
 30.445 380.52 30.68 380.492 30.91 c 380.52 30.68 380.559 30.441 380.605
 30.211 c f
381.465 27.805 m 381.461 27.813 381.453 27.824 381.449 27.836 c 381.453
 27.824 381.461 27.813 381.465 27.805 c f
381.383 27.965 m 381.359 28.008 381.34 28.055 381.316 28.098 c 381.34 28.051
 381.359 28.008 381.383 27.965 c f
380.848 29.281 m 380.977 28.883 381.129 28.496 381.305 28.125 c 381.125
 28.504 380.977 28.891 380.852 29.281 c 380.852 29.281 380.848 29.281 380.848
 29.281 c f
Q Q
showpage
%%Trailer
end restore
%%EOF
