 Nome,Telefone,Email,Diretoria,Cargo,Facebook,LinkedIn,Foto
Pedro Moreira,(41) 99523-8356,plusmoreira@gmail.com,Administrativo-financeiro,Diretor,plusmoreira,plusmoreira,pedro-moreira.png
Gabriele Rodrigues,(41) 99853-0322,gabrielerodriguesb@gmail.com,Comunicação,Diretor,gabrielerodriguesb,,gabriele-rodrigues.png
Wellington Vicente,(41) 99765-2954,wellingtongabrielvs@gmail.com,Desenvolvimento humano,Diretor,wellingtongabriel.vicentedesouza,wellingtongabrielvs/,wellington-vicente.png
Enzo Maruffa,(41) 99282-8002,enzomaruffa@gmail.com,Negócios,Diretor,enzolitos,enzomaruffa,enzo-maruffa.png
Giulia Padovani,(41) 98474-3989,giuliacesarpad@gmail.com,Presidência,Diretor,giulia.padovani.355,giuliapadovani/,giulia-padovani.png
Lucas Sampaio,(41) 99551-6983,lucassampaiowho@gmail.com,Projetos,Diretor,lucassampaiofranco,,lucas-sampaio.png
Thales Sousa,(41) 99879-2942,thsousa101@gmail.com,Qualidade,Diretor,profile.php?id=100016906864081,thales-agapito/,thales-sousa.png
Gabriel Barreto,(61) 99905-6542,sbarreto.gabriel@gmail.com,Negócios,Conselheiro,,,gabriel-barreto.png
Jean Sanchuki,(41) 98863-6343,jean.sanchuki@gmail.com,Administrativo-financeiro,Assessor,Nulo,Nulo,jean-sanchuki.png
Vinicius Pacheco,(47) 99257-4343,vinipac88@gmail.com,Administrativo-financeiro,Assessor,Nulo,Nulo,vinicius-pacheco.png
Luiz Chiconato,(43) 99863-8411,luiz.f.chiconato@gmail.com,Comunicação,Assessor,luiz.fernando.3154,luizfchiconato/,luiz-chiconato.png
Mateus Marinho ,(41) 99686-4619,mmmateus314@gmail.com,Comunicação,Assessor,waidanshu,mateusmmonteiro/,mateus-marinho.png
Victor Adachi,(41)99547-5043,vladachi2017@gmail.com,Comunicação,Assessor,profile.php?id=100019302646804,Nulo,victor-adachi.png
Gabriel Santos,(41)99945-3309,gabrel.souzasantos@gmail.com,Comunicação,Assessor,Nulo,Nulo,gabriel-santos.png
Gustavo Soviersovski,(41) 99584-5200,gas15@inf.ufpr.br,Desenvolvimento humano,Assessor,Nulo,Nulo,gustavo-soviersovski.png
Sayuri Morikane,(34) 99165-3272,sa.morikane@gmail.com,Desenvolvimento humano,Assessor,,,sayuri-morikane.png
David Gomes,(41) 99957-6096,davidgms31@gmail.com,Negócios,Assessor,david.gomes.921025,,david-gomes.png
João Vitor Moreira,(41)99615-7356,moreira_jvm@hotmail.com,Negócios,Assessor,moreira.jvm,jo%C3%A3o-vitor-moreira-375a33160/,joao-vitor-moreira.png
Marcus Dudeque,(41) 99637-0414,marcusdudeque@gmail.com,Negócios,Assessor,marcus.dudeque,marcusdudeque/,marcus-dudeque.png
Nicolas de Marco,(47) 99683-1910,nicolasdenckerdemarco@gmail.com,Negócios,Assessor,NicolasDenckerDeMarco?ref=bookmarks,nicolas-de-marco-48039a167/,nicolas-de-marco.png
Samuel Botelho,(13)98144-2230,samuelfbtlh@gmail.com,Negócios,Assessor,samuel.botelho.7731,sfbtlh,samuel-botelho.png
Gabriel Thá,(41) 98822-1442,gabrieltha16@gmail.com,Negócios,Assessor,gabriel.tha.5,Nulo,gabriel-tha.png
Bárbara Vidal,(41) 99816-3489,babarbaravb@gmail.com,Presidência,Assessor,barbara.vidal.7902,b%C3%A1rbara-vidal-09b93716a/,barbara-vidal.png
Lilian Lin Ko,(41)99550-7317,linko5523@gmail.com,Presidência,Assessor,japinhanega,lilian-ko-576a86151/,lilian-lin-ko.png
Deividy Hertz,(49) 99990-9233,dhertzb@gmail.com,Projetos,Assessor,,,deividy-hertz.png
Fernando Shinohata,(41) 99753-8933,fernandoshinohata@gmail.com,Projetos,Assessor,fshinohata,fshinohata/,fernando-shinohata.png
Isabelle Bernieri,(41)99224-8007,isabelle@datamab.com.br,Projetos,Assessor,isabelle.bernieri,Nulo,isabelle-bernieri.png
Jean Carraro,(41) 99517-7557,jgcarraro@gmail.com,Projetos,Assessor,https://facebook.com/jean.carraro.9,Nulo,jean-carraro.png
Marcelo Santos,(41)99700-4356,marcelo-189@hotmail.com,Projetos,Assessor,Nulo,Nulo,marcelo-santos.png
João Picolo,(41) 99693-2649,picolojoaop@gmail.com,Projetos,Assessor,Nulo,Nulo,joao-picolo.png
Erick Silva,(11) 97032-3885,erick.silva.12348@gmail.com,Projetos,Assessor,erick.silva.79656921,Nulo,erick-silva.png
Amanda Zepechouka,(41) 99768-7550,amandamzepechouka@gmail.com,Qualidade,Assessor,Nulo,Nulo,amanda-zepechouka.png
Fernanda Kawasaki,(18) 98133-4331,fernandakawasaki@hotmail.com,Qualidade,Assessor,fernanda.kawasaki,Nulo,fernanda-kawasaki.png
João Pedro de Matos,(41) 99595-0409,jpdemoliveira@gmail.com,Qualidade,Assessor,,,joao-pedro-de-matos.png
Legton Vicente,(41) 99551-8048,legton0@gmail.com,Qualidade,Assessor,,,legton-vicente.png
Leonardo Krüger,(41) 99698-4884,krugerleo_lbnk@hotmail.com,Qualidade,Assessor,krugerleo.lbnk,leonardo-bnkruger/,leonardo-kruger.png